<?xml version="1.0" encoding="utf-8"?>
<!-- Generator: Adobe Illustrator 23.0.1, SVG Export Plug-In . SVG Version: 6.00 Build 0)  -->
<svg version="1.1" id="Layer_1" xmlns="http://www.w3.org/2000/svg" xmlns:xlink="http://www.w3.org/1999/xlink" x="0px" y="0px"
	 viewBox="0 0 150 150" style="enable-background:new 0 0 150 150;" xml:space="preserve">
<style type="text/css">
	.st0{fill:#002F6C;}
</style>
<g>
	<g>
		<path class="st0" d="M128.1,56.3h-9.4V43.7C118.7,19.6,99.1,0,75,0S31.3,19.6,31.3,43.7v12.5h-9.4c-1.7,0-3.1,1.4-3.1,3.1v78.1
			c0,6.9,5.6,12.5,12.5,12.5h87.5c6.9,0,12.5-5.6,12.5-12.5V59.4C131.3,57.6,129.9,56.3,128.1,56.3z M84.4,121.5
			c0.1,0.9-0.2,1.8-0.8,2.4c-0.6,0.7-1.4,1-2.3,1H68.8c-0.9,0-1.7-0.4-2.3-1c-0.6-0.7-0.9-1.5-0.8-2.4l2-17.7
			c-3.2-2.3-5.1-6-5.1-10.1c0-6.9,5.6-12.5,12.5-12.5c6.9,0,12.5,5.6,12.5,12.5c0,4-1.9,7.7-5.1,10.1L84.4,121.5z M100,56.3H50V43.7
			c0-13.8,11.2-25,25-25s25,11.2,25,25V56.3z"/>
	</g>
</g>
</svg>
